004 - How to use the PSA DB
…
What about if we wanted to store a list of the site codes and what state and year they were enrolled in?

site_list <- tbl(con, "site_information") %>% 
  select(year, state, code, latitude, longitude) %>% 
  arrange(year, state, code) %>% 
  collect()

site_list

# A tibble: 134 x 5
   year  state code  latitude longitude
   <chr> <chr> <chr>    <dbl>     <dbl>
 1 2017  GA    HFS       32.6     -82.1
 2 2017  GA    IHS       33.4     -83.2
 3 2017  MD    BGR       39.6     -76.6
 4 2017  MD    CJL       39.0     -75.8
 5 2017  MD    CRD       38.9     -75.8
 6 2017  MD    CSK       38.7     -75.8
 7 2017  MD    QHS       39.2     -75.8
 8 2017  MD    SGK       38.2     -75.7
 9 2017  MD    TCA       38.9     -76.2
10 2017  MD    TCB       38.8     -76.2
#  with 124 more rows
…
But again, that would return the whole query at once, instead of lazily, so if you want to iterate over different versions of your query for testing, it can be slow and eat up memory. All the explicit naming and quoting that {dbplyr} is doing when it translates to SQL prevents a lot of errors, but if your hand-written SQL is better than mine, you can use it straight instead.

Lets look at rows that have already had the bags run on the C:N analyzer to get %N content:

n_data <- bag_data %>% 
  filter(!is.na(percent_n)) %>% 
  collect()

n_data

# A tibble: 413 x 8
   code  year  state subplot subsample  time dry_biomass_wt percent_n
   <chr> <chr> <chr>   <int> <chr>     <int>          <dbl>     <dbl>
 1 CSK   2017  MD          2 B             4           74.7      2.76
 2 SGK   2017  MD          1 B             3           67.6      2.96
 3 TKA   2017  MD          1 A             0           61.9      3.21
 4 KTC   2018  MD          2 A             0           62        4.64
 5 KTE   2018  MD          1 A             0           64.7      2.85
 6 CJL   2017  MD          2 B             2           74.1      1.61
 7 QAS   2018  MD          1 A             0           59.7      2.92
 8 CSA   2018  MD          1 A             0           91.8      1.84
 9 QAS   2018  MD          2 A             0           59.9      3.00
10 TKA   2017  MD          1 A             1           59.6      3.69
#  with 403 more rows
…
The last step is to create new columns using an anonymous function: ~.*dry_wt_est_g_m2/100. This is the same thing as a function that looks like multiplier <- function(pct) { pct * dry_wt_est_g_m2 / 100}. We then use that function on all the variables/columns (vars()) that match the text "percent_". For every such column, it will now make a new column with the name percent_foo_g_m2, which will be the total amount of foo in \(grams/meter^{2}\).

You can also see I printed out the generated SQL query, since this is still all happening inside the database. You could have pulled the query in locally at a number of points during this chain, and the {dplyr} syntax would have been identical (the calls to filter, mutate, summarize, group_by, full_join); just the calls to tbl(con, "table_name") would have been your local variables instead.

Again, this is overly-explicit generated SQL, which could probably be simplified if you wrote it by hand. However, the {dbplyr}-translated version checks for a lot of possible errors and tries to optimize the number of operations for speed and memory-efficiency.

5.5 Complete the query

local_biomass_df <- collect(biomass_with_units_query) %>% 
  filter(!is.na(state))

local_biomass_df

# A tibble: 259 x 51
   cid.x code  year  state county longitude latitude notes additional_cont
   <int> <chr> <chr> <chr> <chr>      <dbl>    <dbl> <chr> <chr>           
 1  1086 IHS   2017  GA    Oconee     -83.2     33.4 <NA>  <NA>            
 2  1086 IHS   2017  GA    Oconee     -83.2     33.4 <NA>  <NA>            
 3  1085 HFS   2017  GA    Burke      -82.1     32.6 <NA>  <NA>            
 4  1085 HFS   2017  GA    Burke      -82.1     32.6 <NA>  <NA>            
 5  1223 TKC   2017  MD    Talbot     -76.1     38.8 <NA>  <NA>            
 6  1226 TCB   2017  MD    Talbot     -76.2     38.8 <NA>  <NA>            
 7  1233 QHS   2017  MD    Queen     -75.8     39.2 <NA>  <NA>            
 8  1225 TCA   2017  MD    Talbot     -76.2     38.9 <NA>  <NA>            
 9  1231 CRD   2017  MD    Carol     -75.8     38.9 <NA>  <NA>            
10  1226 TCB   2017  MD    Talbot     -76.2     38.8 <NA>  <NA>            
#  with 249 more rows, and 42 more variables: producer_id <chr>,
#   address <chr>, subplot <int>, m_ratio <dbl>, cid.y <int>,
#   percent_fat <dbl>, percent_cp <dbl>, percent_ash <dbl>,
#   percent_adf <dbl>, percent_ndf <dbl>, percent_lignin <dbl>,
#   percent_nfc <dbl>, percent_cellulose_calc <dbl>,
#   percent_hemicell_calc <dbl>, percent_carb_nnorm <dbl>,
#   percent_cellulose_nnorm <dbl>, percent_lignin_nnorm <dbl>,
#   percent_carb_norm <dbl>, percent_cellulose_norm <dbl>,
#   percent_lignin_norm <dbl>, fresh_wt_a <dbl>, fresh_wt_b <dbl>,
…
